{
  "project_info": {
    "project_number": "499246190180",
    "firebase_url": "https://carbon-syntax-155109.firebaseio.com",
    "project_id": "carbon-syntax-155109",
    "storage_bucket": "carbon-syntax-155109.appspot.com"
  },
  "client": [
    {
      "client_info": {
        "mobilesdk_app_id": "1:499246190180:android:b4bf05037957a9a0",
        "android_client_info": {
          "package_name": "com.knowmads"
        }
      },
      "oauth_client": [
        {
          "client_id": "499246190180-9gnti3v3n58qat9985ut0tlpbt2ue2ru.apps.googleusercontent.com",
          "client_type": 3
        }
      ],
      "api_key": [
        {
          "current_key": "AIzaSyApkIsS8VN2Dgvp44HPS1VbZD779j77GAk"
        }
      ],
      "services": {
        "analytics_service": {
          "status": 1
        },
        "appinvite_service": {
          "status": 1,
          "other_platform_oauth_client": []
        },
        "ads_service": {
          "status": 2
        }
      }
    }
  ],
  "configuration_version": "1"
}